700397 893490 525
978509 195788 525
154696 851920 525
574405 4231 470
739389 267537 509
269616 523098 470
257811 213978 443
18862 258036 443
543946 264518 470
877648 288162 525
150546 253484 443
164157 46123 383
878456 157783 525
952283 825301 525
711494 853066 525
537452 911658 525
358803 110894 443
326688 195507 443
362115 316763 441
787163 238310 509
13557 209853 383
340256 176459 443
791059 184326 509
467609 155686 449
524256 933940 525
501135 973772 525
885551 273271 525
612333 834690 509
981252 38661 525
384884 221011 443
358642 259052 441
341234 163937 443
541862 528792 408
664607 203853 509
216469 285899 443
233596 497836 449
673065 800445 504
240660 62482 443
576805 115543 470
521696 167487 470
889517 877408 445
64732 261647 443
491348 314001 449
634279 945388 525
501536 445135 444
719470 233676 509
335995 99058 443
473903 349125 449
521023 603151 452
449363 149729 449
229526 964552 525
282295 431490 449
266694 63143 443
191147 51168 383
753386 380896 509
624817 294279 470
138482 54524 354
34027 395323 443
631432 911822 525
60407 294113 443
539276 123019 470
544251 823255 509
891174 466587 525
537532 877166 525
407078 7072 443
464057 907542 525
620787 639528 509
40971 514969 470
971263 936456 507
624124 963614 525
922588 456245 525
152442 994649 525
807965 893633 525
123770 116515 336
623558 591189 447
42348 637938 509
861240 432208 525
850556 978338 507
828365 755174 468
5619 818667 509
13720 554788 470
782938 126661 509
456279 969111 525
73064 141292 354
936106 756943 525
40451 948654 525
847368 476753 525
733351 101682 509
446603 670380 509
59564 340226 443
987888 116554 525
111922 283625 443
813760 272180 509
216036 580401 470
746207 938490 525
710862 142470 509
249991 33098 443
456555 432714 400
142674 694075 509
27426 455538 449
71731 836979 509
244196 950664 525
971518 628058 525
373947 622260 470
418919 252533 449
994049 60064 525
496421 10491 449
616196 209550 470
334285 475643 449
685001 204759 509
363918 118531 443
552752 153071 470
144214 143477 282
375294 633574 509
680049 159881 509
727480 435098 509
453019 929853 525
47905 986749 525
11642 585312 470
407150 968539 525
604182 983602 525
582205 955843 525
985167 278827 525
428670 519695 470
34107 926884 525
674671 548484 509
331278 835667 509
684640 264898 509
206632 734612 509
124315 451432 449
474920 735925 509
184218 315238 443
909704 415711 525
840840 845182 388
389424 239276 441
58729 217375 386
121492 922996 525
406621 364823 436
687057 159265 509
733723 760559 424
113328 965810 525
751305 548004 509
688718 511874 509
445965 875339 525
231608 664008 509
870619 785912 525
605037 474848 470
184079 843964 525
256438 809488 509
172861 853244 525
968196 489972 525
362562 684158 509
530006 863179 525
410313 239205 449
4124 659344 509
257886 898919 525
304726 592667 470
879334 618697 525
45983 102818 351
668934 592778 509
229550 460794 449
903689 967214 507
816171 532701 509
947063 943887 383
946340 718680 525
424745 58345 449
700386 476677 509
322706 716094 509
664323 591976 509
119745 81208 354
736148 571279 509
741209 124195 509
651581 207976 509
720482 498532 509
539117 27066 470
533955 691250 509
222785 24610 386
566064 217027 470
253882 979052 525
663815 991406 525
538784 493534 470
715391 907418 525
39522 431559 449
340135 416919 449
248404 899395 525
496264 116807 449
953354 733537 525
150693 757839 509
755537 707881 424
185191 450208 449
243861 595399 470
719145 895409 525
863894 355980 525
730318 917153 525
747572 201042 509
340142 95729 443
246631 466899 449
473993 904175 525
107244 609891 470
323503 616198 470
630492 450820 509
790307 81805 509
583131 111444 470
989594 76953 525
773658 830078 468
292529 358086 441
72364 110217 354
209710 983615 525
455294 612985 470
797951 910981 525
897924 653353 525
103335 558407 470
929297 745554 525
256055 76821 443
652366 231028 509
578557 258573 470
771458 948182 525
156300 104800 383
332755 506306 449
752936 769725 468
742418 981209 525
924450 25701 525
872394 290213 525
893665 416631 525
275251 891290 525
796803 492545 509
778098 908866 525
340304 846584 525
820240 607398 509
84124 473108 449
815081 394856 509
769369 370118 509
693351 627387 442
515215 158875 470
269263 330841 407
369077 187588 443
954193 51167 525
775178 657435 504
116006 752631 509
359338 671125 509
704060 270275 509
867097 469107 525
86679 645694 509
752151 348743 509
200297 461021 449
18990 404959 443
260054 332754 407
191065 401988 443
306697 897797 525
147172 298604 443
460031 382150 449
255674 162062 443
667403 443225 509
424904 830193 509
430195 944377 525
681960 804957 504
443657 373361 449
521730 410885 470
427929 661095 509
7961 32241 308
328541 741409 509
419132 147276 449
