880407 897908 445
712270 233771 509
137973 466355 449
89709 872656 525
68710 345017 443
990019 419585 525
618068 145425 470
441086 67588 449
506058 892093 525
792737 326839 509
878621 760024 525
801659 333937 509
506520 694626 509
615006 469117 470
145561 815538 509
151721 280925 443
49814 336692 443
899909 415585 525
412912 238721 449
442562 284650 449
619188 793025 509
209417 955119 525
513057 696918 509
624659 392374 470
129169 410404 449
152916 753720 509
42199 723075 509
399408 79355 443
318113 271888 389
878404 906347 445
270350 472346 449
619488 845461 525
221701 414881 449
102155 491149 449
336070 168396 443
906455 49838 525
603449 470986 470
328128 741363 509
727103 166325 509
969024 705100 525
863223 897712 445
612717 984577 525
135830 648560 509
155713 835733 509
772135 239188 509
66249 420088 449
348195 866734 525
580661 234248 470
998103 633711 525
155102 816644 509
113994 67690 354
23190 529345 470
794258 926091 525
734001 63479 509
814435 897863 525
150953 420859 449
120489 314100 443
670422 567217 509
590502 709873 509
427048 418783 418
883679 741482 525
608342 742866 509
880315 686753 525
993097 703738 525
698395 986494 525
889125 618899 525
19363 970797 525
230563 490165 449
166595 410826 449
506716 870170 525
962920 641888 525
389501 625172 470
694998 188834 509
887266 590830 525
436118 682157 509
541470 348379 470
774108 605348 509
959618 438923 525
473758 980844 525
7960 94143 351
287797 968702 525
484006 897861 525
300586 675552 509
944575 65691 525
27472 908621 525
960465 678860 525
313740 19220 443
309274 71815 443
920370 822239 525
583160 927397 525
203578 185754 360
612870 37428 470
689947 550744 509
329307 443510 449
251117 537691 470
652625 353625 509
481747 551421 470
695688 465843 509
708612 390884 509
678184 420335 509
997124 186536 525
172743 957883 525
792554 582707 509
133883 339840 443
593665 953659 525
97215 205964 383
37593 700370 509
211953 140457 383
819882 964204 525
396237 440150 449
608345 495659 470
6192 817766 509
997944 203928 525
785537 488880 509
40080 321560 443
682664 690517 398
764583 92124 509
53212 41439 340
512191 482727 470
673851 799342 504
40264 926815 525
461935 282020 449
397010 368957 436
457660 468326 444
658020 936615 525
641938 521543 509
460644 94537 449
749229 544680 509
150629 57019 375
600584 782745 509
938222 499085 525
674942 607435 509
350330 112560 443
475391 339296 449
424871 237027 449
801056 899460 525
520615 340384 470
385125 470466 449
148277 832698 509
996351 985089 427
973364 661324 525
590454 576059 434
356158 813080 509
338631 68974 443
717958 30285 509
232652 711526 509
712556 364067 509
318838 755368 509
630762 32748 509
766665 262312 509
339233 720165 509
974032 451271 525
305897 362703 441
477790 891643 525
679004 542510 509
846784 635672 525
11564 572979 470
169826 596609 470
278005 218636 443
229811 659195 509
928575 10377 525
539091 806534 509
113912 611658 470
385913 911605 525
159610 204204 370
451014 388779 449
849499 622974 525
648028 813781 504
912237 566968 525
522360 335616 470
737435 494693 509
339913 560344 470
588034 60068 470
120416 904699 525
487269 412615 444
635215 721460 504
553253 717995 509
215590 849719 525
516600 927378 525
536653 923468 525
884409 277260 525
128701 385500 443
326713 634095 509
34167 451985 449
699368 516360 509
965811 242096 525
175476 816986 509
984191 669298 525
881531 263798 525
821127 940948 525
830812 562556 509
705522 246631 509
891847 879488 445
423702 627280 509
770373 561513 509
964030 807209 525
845402 483159 525
937018 846899 476
800607 307054 509
787516 305032 509
499358 311095 449
793161 327833 509
117886 166869 383
278805 98395 443
505133 395608 449
314661 140798 443
836472 587782 509
936510 457400 525
274322 756185 509
237214 96273 443
247664 166448 443
776666 51855 509
805199 725220 468
717980 291173 509
654604 580572 509
670837 165605 509
870382 190725 525
270562 851842 525
970350 829029 525
473050 635409 509
446215 635420 509
587618 313840 470
494736 951729 525
435564 832759 509
85544 752786 509
182962 642345 509
910231 49690 525
451629 394436 449
402257 332717 441
994236 125610 525
57907 652777 509
360952 979885 525
96468 984909 525
786623 849480 525
994397 146693 525
447320 586669 470
994160 49644 525
279731 257169 407
64538 229743 386
741783 3986 509
134648 116249 344
886487 654883 525
853463 915860 476
510724 56605 449
362372 372236 392
885363 720514 525
58578 42204 340
215399 591892 470
968061 58270 525
95953 844725 525
978879 392197 525
81160 743891 509
322338 384797 441
59292 325422 443
940504 386767 525
510143 806139 509
313261 415798 449
632951 990878 525
421662 771047 509
968464 463411 525
765491 459421 509
302135 14906 443
972404 89252 525
604527 355680 470
637160 542100 509
727255 306668 509
958567 113467 525
538666 345501 470
427827 572515 470
827787 386579 509
124553 968505 525
324038 833007 509
129027 904541 525
705868 475510 509
933293 771190 525
60856 618217 470
49511 499695 449
611367 423956 470
385682 297571 441
538155 176630 470
857094 874245 432
976067 333120 525
50480 251795 443
409486 631702 509
22184 755861 509
720511 963899 525
42618 884620 525
405502 777453 509
769577 881230 525
811457 464472 509
53238 293008 443
788567 966873 525
515360 869397 525
926591 209411 525
275224 482438 449
303501 989043 525
290762 687432 509
740042 552648 509
367630 215057 443
63149 843106 525
560933 752212 509
288195 81478 443
