226873 925531 525
496133 615098 470
701804 878302 525
302709 629553 509
408897 781397 509
189639 463200 449
798299 675802 504
564334 812801 509
310570 901791 525
122988 119418 336
545378 59072 470
861331 279761 525
491217 22390 449
83523 677166 509
231071 916716 525
65733 375344 443
968882 977647 458
985324 478182 525
216560 231031 443
761752 730674 424
813699 881220 525
291157 931735 525
925305 524527 525
850992 995901 507
534438 533974 346
706376 891870 525
192990 702134 509
247791 422477 449
969137 235095 525
624935 818466 509
903059 898940 401
421352 929159 525
682873 414824 509
362698 387923 423
194203 760392 509
116736 74866 354
552754 263589 470
147417 961527 525
556186 876465 525
891221 146853 525
709425 240155 509
976988 651500 525
563179 831976 509
434644 869278 525
672678 919911 525
192940 812422 509
666270 539225 509
810613 499349 509
375882 176267 443
244360 213444 443
802032 147585 509
536990 834441 509
236544 395814 441
825251 140167 509
711823 270447 509
979391 743083 525
29629 936292 525
635271 347121 509
130412 407417 443
24843 224613 386
582943 249263 470
236210 990246 525
477079 313976 449
814322 44852 509
812458 179698 509
346140 202513 443
542035 970053 525
464256 201835 449
569468 976147 525
705566 116325 509
685165 912740 525
86516 177533 383
698392 203191 509
262172 504033 449
251905 18187 443
305313 369076 441
767873 502720 509
117137 849904 525
702447 200966 509
673130 588983 509
266938 522426 470
528018 428387 470
174563 212068 373
643045 60962 509
892598 521590 525
304053 541773 470
626917 646133 416
956917 71726 525
380114 307480 441
975383 559068 525
908464 627709 525
249569 157432 443
623823 957828 525
796720 412054 509
919441 28591 525
291247 39225 443
603479 519410 452
523660 201633 470
313851 14308 443
969930 755514 525
31023 563143 470
334874 509199 449
275360 83823 443
997971 548235 525
130233 131342 331
651425 567996 509
725901 17839 509
494382 85318 449
451615 161070 449
363641 127123 443
312643 923505 525
456946 551679 470
843319 220809 525
898787 919874 476
456341 804904 509
136667 528557 470
142243 476899 449
234116 436816 449
504948 290093 449
429659 343083 449
888114 872595 445
573615 644883 509
786512 8007 509
887522 941794 507
351328 54428 443
703581 647896 442
490307 65485 449
456353 749079 509
700111 293024 509
358856 489465 449
571750 490128 470
935198 511139 525
501 265455 443
689911 212895 509
356418 534104 470
206168 598521 470
537522 259089 470
649286 784076 504
12961 597903 470
285622 355810 441
365730 729359 509
498188 552841 470
562608 482784 470
142832 138830 375
816361 916174 525
826562 353534 509
59930 325257 443
922859 582793 525
541242 706334 509
523210 8128 470
870735 354292 525
125509 145918 375
928193 23358 525
905918 788568 525
597850 646238 509
318999 817488 509
559816 340936 470
299521 16689 443
296941 861201 525
68974 21039 340
264344 594163 470
967722 731759 525
215984 167467 373
206798 40538 383
235637 769302 509
375605 881285 525
19029 752357 509
256881 892173 525
765469 369374 509
740827 392076 509
987032 592662 525
422534 971173 525
927959 875160 476
945456 311573 525
893229 968695 507
709885 580206 509
518621 582124 452
261205 253713 363
423986 575567 470
68614 963937 525
729214 205390 509
919427 424368 525
247454 153926 443
793674 370462 509
174837 610543 470
378942 892181 525
248350 999471 525
816246 186417 509
42078 920763 525
83191 468201 449
328498 526756 470
459566 556475 470
797425 630016 504
69729 680937 509
891826 312445 525
652268 87299 509
715857 681459 504
459924 67647 449
557912 190795 470
729509 727685 362
490703 687960 509
40823 470274 449
255886 246566 363
766614 45484 509
579618 160729 470
369603 640816 509
878231 236886 525
854129 40154 525
283652 702275 509
316504 530480 470
549637 776590 509
885413 760687 525
396638 652319 509
868809 14668 525
755951 539253 509
525815 747732 509
492828 448486 444
735658 729516 380
120694 831891 509
815103 498822 509
772266 726222 468
388902 879211 525
945661 139396 525
662526 727465 504
658336 254488 509
915643 747179 525
977008 736723 525
842557 428492 525
76552 605009 470
280392 830341 509
672344 384270 509
674191 180611 509
791297 74448 509
68836 241107 443
224125 452494 449
666731 189534 509
660068 174342 509
419894 123338 449
776194 117071 509
474537 941815 525
