784134 313219
494667 285120
3659 685305
284174 20495
713509 784801
360616 82389
406027 995830
379017 364506
431993 880035
748349 515054
453376 900139
56621 914275
182818 727194
756190 365360
645986 434762
186230 403642
63932 808254
733527 157101
773026 281276
393254 321849
172647 224431
908513 53932
146715 357368
242707 287412
185334 503107
256930 710839
745 355101
177837 501084
810286 945371
248895 588262
78617 670593
454946 269407
717402 166785
155549 938528
530357 918686
663530 903260
167382 586066
200231 331069
885939 549731
33958 865774
67157 898636
364666 440695
899872 602522
147485 534611
613417 632595
664902 204708
895476 301462
788313 91650
332956 395501
226720 579127
367179 233563
727649 733623
489020 15358
143958 415473
650885 128184
687517 404717
836175 909899
406505 634738
357906 348928
48808 555459
646967 915062
635616 656482
910935 658569
631007 976688
170995 486883
273767 101605
432068 504323
892744 510864
687289 579336
689378 695642
987979 238103
916624 962151
119813 947269
905348 597015
113534 892649
678715 764607
615432 249913
520023 458467
165745 875942
138183 349855
324964 697858
623238 769247
817934 484519
482574 874997
807 919018
730982 784709
588643 538319
847437 8901
467605 990762
551435 664163
835085 296408
322081 688717
666621 449537
741396 288782
413754 406862
413972 733655
795799 931787
341561 595560
426249 538282
558874 353623
212188 378630
282057 481421
976638 639111
865450 616951
734342 554906
347657 510781
20044 330180
335298 208871
688089 553747
536462 193838
526878 487746
861175 9330
976607 496032
62969 457580
365431 971663
53772 550218
596090 735248
825657 288211
204810 873954
686789 33092
910065 38871
111725 141264
728277 426920
552715 379594
989525 461560
686051 84652
542866 514317
39693 433547
576286 768864
73656 751456
888610 306838
350457 750212
894919 347506
41723 356276
716576 739454
171381 240858
405133 904987
379350 85529
905666 259173
898862 109835
510743 951798
743683 585515
830506 815598
6707 961635
560929 816097
293944 226582
328354 811928
836644 315798
337277 386857
752937 47602
635312 907190
336021 799334
770443 394444
97304 25748
782786 512658
921814 981001
143632 125563
369661 833877
181458 972589
70155 405693
302826 602224
71507 48090
227496 794800
132406 638212
664183 892328
988099 313738
451360 41819
905151 263562
977810 442452
301105 593528
929776 226970
715947 907668
175120 774999
426499 923865
257794 745947
336515 526007
277079 61031
271994 844617
763966 717873
211548 788426
916265 287935
732769 360050
448966 501365
234532 239362
509767 912604
346905 722530
420257 880722
102550 39072
561145 754729
486729 222853
931939 120034
522977 294558
448627 367131
614173 569989
52161 397196
563443 409731
773086 638840
554349 59686
491379 682743
899728 931251
446332 983024
308960 38475
738622 397384
763547 500612
781242 169990
433915 964748
231474 673611
886519 226868
740006 3616
302723 293849
447688 582344
122857 981799
273996 519664
425872 157284
157119 721264
