784134 313219 509
494667 285120 449
3659 685305 509
284174 20495 443
713509 784801 468
360616 82389 443
406027 995830 525
379017 364506 423
431993 880035 525
748349 515054 509
453376 900139 525
56621 914275 525
182818 727194 509
756190 365360 509
645986 434762 509
186230 403642 443
63932 808254 509
733527 157101 509
773026 281276 509
393254 321849 441
172647 224431 386
908513 53932 525
146715 357368 443
242707 287412 407
185334 503107 449
256930 710839 509
745 355101 443
177837 501084 449
810286 945371 525
248895 588262 470
78617 670593 509
454946 269407 449
717402 166785 509
155549 938528 525
530357 918686 525
663530 903260 525
167382 586066 470
200231 331069 443
885939 549731 525
33958 865774 525
67157 898636 525
364666 440695 449
899872 602522 525
147485 534611 470
613417 632595 509
664902 204708 509
895476 301462 525
788313 91650 509
332956 395501 441
226720 579127 470
367179 233563 441
727649 733623 380
489020 15358 449
143958 415473 449
650885 128184 509
687517 404717 509
836175 909899 525
406505 634738 509
357906 348928 379
48808 555459 470
646967 915062 525
635616 656482 416
910935 658569 525
631007 976688 525
170995 486883 449
273767 101605 443
432068 504323 444
892744 510864 525
687289 579336 509
689378 695642 442
987979 238103 525
916624 962151 507
119813 947269 525
905348 597015 525
113534 892649 525
678715 764607 504
615432 249913 470
520023 458467 470
165745 875942 525
138183 349855 443
324964 697858 509
623238 769247 509
817934 484519 509
482574 874997 525
807 919018 525
730982 784709 468
588643 538319 452
847437 8901 525
467605 990762 525
551435 664163 509
835085 296408 509
322081 688717 509
666621 449537 509
741396 288782 509
413754 406862 449
413972 733655 509
795799 931787 525
341561 595560 470
426249 538282 470
558874 353623 470
212188 378630 443
282057 481421 449
976638 639111 525
865450 616951 525
734342 554906 509
347657 510781 449
20044 330180 443
335298 208871 443
688089 553747 509
536462 193838 470
526878 487746 470
861175 9330 525
976607 496032 525
62969 457580 449
365431 971663 525
53772 550218 470
596090 735248 509
825657 288211 509
204810 873954 525
686789 33092 509
910065 38871 525
111725 141264 349
728277 426920 509
552715 379594 470
989525 461560 525
686051 84652 509
542866 514317 439
39693 433547 449
576286 768864 509
73656 751456 509
888610 306838 525
350457 750212 509
894919 347506 525
41723 356276 443
716576 739454 424
171381 240858 443
405133 904987 525
379350 85529 443
905666 259173 525
898862 109835 525
510743 951798 525
743683 585515 509
830506 815598 450
6707 961635 525
560929 816097 509
293944 226582 443
328354 811928 509
836644 315798 509
337277 386857 441
752937 47602 509
635312 907190 525
336021 799334 509
770443 394444 509
97304 25748 351
782786 512658 509
921814 981001 507
143632 125563 375
369661 833877 509
181458 972589 525
70155 405693 443
302826 602224 470
71507 48090 340
227496 794800 509
132406 638212 509
664183 892328 525
988099 313738 525
451360 41819 449
905151 263562 525
977810 442452 525
301105 593528 470
929776 226970 525
715947 907668 525
175120 774999 509
426499 923865 525
257794 745947 509
336515 526007 470
277079 61031 443
271994 844617 525
763966 717873 424
211548 788426 509
916265 287935 525
732769 360050 509
448966 501365 444
234532 239362 350
509767 912604 525
346905 722530 509
420257 880722 525
102550 39072 351
561145 754729 509
486729 222853 449
931939 120034 525
522977 294558 470
448627 367131 449
614173 569989 434
52161 397196 443
563443 409731 470
773086 638840 504
554349 59686 470
491379 682743 509
899728 931251 476
446332 983024 525
308960 38475 443
738622 397384 509
763547 500612 509
781242 169990 509
433915 964748 525
231474 673611 509
886519 226868 525
740006 3616 509
302723 293849 371
447688 582344 470
122857 981799 525
273996 519664 470
425872 157284 449
157119 721264 509
